INDEX VERSION 1.126+/home/ucsp/Escritorio/program/mscheduling/.metadata/.plugins/org.eclipse.jdt.core
392775124.index
460152253.index
2426646370.index
3900037835.index
989528713.index
2307328643.index
3542660237.index
1153205451.index
2422600702.index
1513993030.index
1259291233.index
3938652823.index
2259717368.index
2598035366.index
